{
    "title": "StudyPrograms",
    "model": "StudyPrograms",
    "searchExpression":"indexof(name, '${text}') ge 0 or indexof(department/name, '${text}') ge 0 or indexof(studyLevel/name, '${text}') ge 0",
    "columns": [
      {
        "name":"id",
        "property": "id",
        "formatter": "ActionLinkFormatter",
        "actions" : [
          {
            "title": "StudyPrograms.Preview",
            "href": "#/study-programs/${id}/"
          },
          {
            "title": "StudyPrograms.EditStudyProgram",
            "href": "#/study-programs/${id}/edit"
          }
        ]
  
      },
      {
        "name":"isActive",
        "property": "isActive",
        "title":"StudyPrograms.Active.Singular",
        "formatter": "TrueFalseFormatter"
      },
      {
        "name":"name",
        "property": "name",
        "title":"StudyPrograms.Name"
      },
      {
        "name":"abbreviation",
        "property": "abbreviation",
        "title":"StudyPrograms.Abbreviation"
      }
    ],
    "defaults":{
      "filter": "(department eq ${currentDepartment} and isActive eq '1')"
    },
    "criteria": [
      {
        "name": "name",
        "filter": "(indexof(name, '${value}') ge 0)",
        "type": "text"
      },
      {
        "name": "studylevel",
        "filter": "(studyLevel/alternateName eq '${value}')",
        "type": "text"
      },
      {
        "name": "active",
        "filter": "(isActive eq '${value}')",
        "type": "text"
      },
      {
        "name": "abbreviation",
        "filter": "(indexof(abbreviation, '${value}') ge 0)",
        "type": "text"
      }
    ],
    "paths" : [
        {
            "name": "StudyPrograms.All",
            "show": true,
            "alternateName": "list/index",
            "filter": { }
        },
        {
          "name": "StudyPrograms.Active.Plural",
          "alternateName": "list/active",
          "show": true,
          "filter": {
            "isActive": "1"
          }
        }
    ]
  }
  