{
  "settings": {
    "i18n": {
      "el": {
        "Study program": "Πρόγραμμα σπουδών",
        "Subject area": "Θεματικό πεδίο",
        "Select the subject area you wish to apply for": "Επιλέξτε το θεματικό πεδίο του προγράμματος σπουδών στο οποίο επιθυμείτε να εγγραφείτε (πχ \"Ανθρωπιστικές επιστήμες\").",
        "Select the study program you wish to apply for": "Επιλέξτε το πρόγραμμα σπουδών στο οποίο επιθυμείτε να εγγραφείτε. Μια άδεια λίστα σημαίνει πως-τη δεδομένη χρονική στιγμή-δεν υπάρχουν διαθέσιμα προγράμματα σπουδών προς εγγραφή για το επιλεγμένο θεματικό πεδίο."
      }
    }
  },
  "components": [
    {
      "columns": [
        {
          "components": [
            {
              "label": "Subject area",
              "dataSrc": "url",
              "data": {
                "url": "SubjectAreas?$top=-1&$select=id, name&$orderby=name",
                "headers": []
              },
              "validate": {
                "required": true
              },
              "template": "{{item.name}}",
              "selectValues": "value",
              "refreshOnChange": true,
              "type": "select",
              "input": true,
              "key": "subjectArea",
              "valueProperty": "id",
              "lazyLoad": false,
              "customDefaultValue": "value = data.selectedStudyProgram && !!data.selectedStudyProgram.subjectArea && (data.selectedStudyProgram.subjectArea.id || data.selectedStudyProgram.subjectArea)",
              "description": "Select the subject area you wish to apply for",
              "logic": [
                {
                  "name": "disableLogic",
                  "trigger": {
                    "type": "javascript",
                    "javascript": "result = (data.selectedStudyProgram && data.selectedStudyProgram.id)"
                  },
                  "actions": [
                    {
                      "name": "disableAction",
                      "type": "property",
                      "property": {
                        "label": "Disabled",
                        "value": "disabled",
                        "type": "boolean"
                      },
                      "state": true
                    }
                  ]
                }
              ]
            }
          ],
          "width": 12
        },
        {
          "components": [
            {
              "label": "Study program",
              "dataSrc": "url",
              "data": {
                "url": "StudyPrograms/availableForEnrollment?$top=-1&$filter=subjectArea eq {{data.subjectArea || 0}}&&$expand=department,teachingMethod,info($expand=locale)",
                "headers": []
              },
              "validate": {
                "required": true
              },
              "dataType": "object",
              "idPath": "id",
              "template": "{{item.name}}",
              "selectValues": "value",
              "searchFields": ["value.printName", "value.name"],
              "type": "select",
              "input": true,
              "key": "studyProgram",
              "lazyLoad": true,
              "customConditional": "show = !!data.subjectArea",
              "customDefaultValue": "value = data.selectedStudyProgram",
              "calculateValue": "if (typeof value === 'object' && Object.keys(value).length === 0) {value = null;}",
              "redrawOn": "subjectArea",
              "clearOnHide": true,
              "clearOnRefresh": true,
              "selectThreshold": 0.3,
              "ignoreCache": true,
              "description": "Select the study program you wish to apply for",
              "logic": [
                {
                  "name": "disableLogic",
                  "trigger": {
                    "type": "javascript",
                    "javascript": "result = (data.selectedStudyProgram && data.selectedStudyProgram.id)"
                  },
                  "actions": [
                    {
                      "name": "disableAction",
                      "type": "property",
                      "property": {
                        "label": "Disabled",
                        "value": "disabled",
                        "type": "boolean"
                      },
                      "state": true
                    }
                  ]
                }
              ]
            }
          ],
          "width": 12
        }
      ],
      "customClass": "formio-component-select-wrap",
      "hideLabel": true,
      "type": "columns",
      "input": false
    }
  ]
}
